<?xml version="1.0" encoding="utf-8"?>
<!-- Generator: Adobe Illustrator 23.1.0, SVG Export Plug-In . SVG Version: 6.00 Build 0)  -->
<svg version="1.1" id="Capa_1" xmlns="http://www.w3.org/2000/svg" xmlns:xlink="http://www.w3.org/1999/xlink" x="0px" y="0px"
	 viewBox="0 0 33 33" style="enable-background:new 0 0 33 33;" xml:space="preserve">
<style type="text/css">
	.st0{fill:none;stroke: #038DE2;stroke-width:2;stroke-miterlimit:10;}
	.st1{fill: #038DE2;}
	.st2{fill:none;stroke: #038DE2;stroke-width:2;stroke-linecap:round;stroke-linejoin:round;stroke-miterlimit:10;}
</style>
<g>
	<rect x="2.55" y="14.76" class="st2" width="27.91" height="16.74"/>
	<path class="st2" d="M9.17,14.76V7.08c0,0,0.35-5.58,7.33-5.58s7.67,6.28,7.67,6.28v6.98"/>
</g>
</svg>
